{
  "log" : {
    "version" : "1.2",
    "pages" : [ ],
    "entries" : [ {
      "startedDateTime" : "2022-06-28T07:21:24.774Z",
      "request" : {
        "method" : "POST",
        "url" : "https://api-dev.bcaf.id:8445/oauth/client_credential/accesstoken?grant_type=client_credentials",
        "httpVersion" : "",
        "cookies" : [ ],
        "headers" : [ {
          "name" : "Content-Type",
          "value" : "application/json"
        }, {
          "name" : "Authorization",
          "value" : "Basic MG5OMThJZFBFNXJhSkR5Mms4YWVMdUdKWU1xSWQ2TUQ6YzIxRXYwSVMyTEpZcTJkSw=="
        } ],
        "queryString" : [ {
          "name" : "grant_type",
          "value" : "client_credentials"
        } ],
        "postData" : {
          "mimeType" : "application/json",
          "text" : "",
          "comment" : ""
        },
        "headersSize" : 0,
        "bodySize" : 0,
        "comment" : ""
      },
      "response" : {
        "status" : 200,
        "statusText" : "",
        "httpVersion" : "",
        "cookies" : [ ],
        "headers" : [ {
          "name" : "Connection",
          "value" : "keep-alive"
        }, {
          "name" : "#status#",
          "value" : "HTTP/1.1 200 OK"
        }, {
          "name" : "Content-Length",
          "value" : "211"
        }, {
          "name" : "Date",
          "value" : "Tue, 28 Jun 2022 07:21:24 GMT"
        }, {
          "name" : "Content-Type",
          "value" : "application/json"
        } ],
        "content" : {
          "size" : 211,
          "mimeType" : "application/json",
          "text" : "\n            {\n                \"token_type\": \"BearerToken\",\n                \"access_token\": \"Qs6ii2GYGmz7TG7ZCDzBNWiulllN\",\n                \"expires_in\": \"599\",\n                \"scope\": \"\"\n            }\n        ",
          "comment" : ""
        },
        "redirectURL" : "",
        "headersSize" : 98,
        "bodySize" : 211,
        "comment" : ""
      },
      "cache" : { },
      "timings" : {
        "comment" : "",
        "ssl" : -1,
        "blocked" : -1,
        "dns" : -1,
        "connect" : 0,
        "send" : 0,
        "wait" : 0,
        "receive" : 0
      },
      "comment" : "",
      "_katalonRequestInformation" : {
        "name" : "18",
        "testObjectId" : "Object Repository/API/client_credential",
        "harId" : "135da86a-ef1b-48af-b797-6ab8696bc6bd",
        "reportFolder" : null
      },
      "time" : 0
    } ],
    "comment" : ""
  }
}